%YAML 1.1
%TAG !u! tag:unity3d.com,2011:
--- !u!114 &11400000
MonoBehaviour:
  m_ObjectHideFlags: 0
  m_CorrespondingSourceObject: {fileID: 0}
  m_PrefabInstance: {fileID: 0}
  m_PrefabAsset: {fileID: 0}
  m_GameObject: {fileID: 0}
  m_Enabled: 1
  m_EditorHideFlags: 0
  m_Script: {fileID: 11500000, guid: 8b738bf9dd9394cdf983fe7d30550314, type: 3}
  m_Name: Weapon 2
  m_EditorClassIdentifier: 
  bulletModel: {fileID: 4973763734324883912, guid: 904fd546d8c134f0b877ff69150a859f, type: 3}
  model: {fileID: 1231059253407838925, guid: e028f0aab047d4c6f9e23a5a47547963, type: 3}
  burstCount: 2
  coolDownTime: 0.6
  burstInterval: 0.2
